INDEX VERSION 1.130+D:\mechatronika\projekt\java\projectRejestrator\.metadata\.plugins\org.eclipse.jdt.core
326805980.index
2501520862.index
2301944148.index
1518219961.index
3523662158.index
1988513050.index
4289135590.index
2773834657.index
1622776731.index
14682029.index
2511617568.index
3854475047.index
984225034.index
3248883729.index
1870878615.index
398058497.index
1084624933.index
279868512.index
3886402465.index
1455593261.index
192854838.index
728296283.index
